{
    "version": "1.0.0",
    "plays": [
        {
            "playbook": "/home/student09/builder/playbook.yml",
            "playbook_uuid": "b823e69c-95a4-4e69-9019-aee20c46a3e6",
            "play": "localhost",
            "play_uuid": "164794ba-6196-6401-b80c-000000000005",
            "play_pattern": "localhost",
            "name": "localhost",
            "pattern": "localhost",
            "uuid": "164794ba-6196-6401-b80c-000000000005",
            "__play_name": "localhost",
            "tasks": [
                {
                    "playbook": "/home/student09/builder/playbook.yml",
                    "playbook_uuid": "b823e69c-95a4-4e69-9019-aee20c46a3e6",
                    "play": "localhost",
                    "play_uuid": "164794ba-6196-6401-b80c-000000000005",
                    "play_pattern": "localhost",
                    "task": "Gathering Facts",
                    "task_uuid": "164794ba-6196-6401-b80c-00000000000d",
                    "task_action": "gather_facts",
                    "task_args": "",
                    "task_path": "/home/student09/builder/playbook.yml:2",
                    "host": "localhost",
                    "uuid": "dd1cc987-c313-41cf-a943-38ecc63ddce1",
                    "__host": "localhost",
                    "__result": "OK",
                    "__changed": false,
                    "__duration": "1s",
                    "__number": 0,
                    "__task": "Gathering Facts",
                    "__task_action": "gather_facts",
                    "remote_addr": "127.0.0.1",
                    "res": {
                        "ansible_facts": {
                            "ansible_fibre_channel_wwn": [],
                            "ansible_distribution": "RedHat",
                            "ansible_distribution_release": "Ootpa",
                            "ansible_distribution_version": "8.5",
                            "ansible_distribution_major_version": "8",
                            "ansible_distribution_file_path": "/etc/redhat-release",
                            "ansible_distribution_file_variety": "RedHat",
                            "ansible_distribution_file_parsed": true,
                            "ansible_distribution_file_search_string": "Red Hat",
                            "ansible_os_family": "RedHat",
                            "ansible_system": "Linux",
                            "ansible_kernel": "4.18.0-348.el8.x86_64",
                            "ansible_kernel_version": "#1 SMP Mon Oct 4 12:17:22 EDT 2021",
                            "ansible_machine": "x86_64",
                            "ansible_python_version": "3.8.8",
                            "ansible_fqdn": "085186b572ae",
                            "ansible_hostname": "085186b572ae",
                            "ansible_nodename": "085186b572ae",
                            "ansible_domain": "",
                            "ansible_userspace_bits": "64",
                            "ansible_architecture": "x86_64",
                            "ansible_userspace_architecture": "x86_64",
                            "ansible_user_id": "root",
                            "ansible_user_uid": 0,
                            "ansible_user_gid": 0,
                            "ansible_user_gecos": "root",
                            "ansible_user_dir": "/root",
                            "ansible_user_shell": "/bin/bash",
                            "ansible_real_user_id": 0,
                            "ansible_effective_user_id": 0,
                            "ansible_real_group_id": 0,
                            "ansible_effective_group_id": 0,
                            "ansible_hostnqn": "",
                            "ansible_local": {},
                            "ansible_virtualization_type": "container",
                            "ansible_virtualization_role": "guest",
                            "ansible_virtualization_tech_guest": [
                                "openstack",
                                "container"
                            ],
                            "ansible_virtualization_tech_host": [
                                "kvm"
                            ],
                            "ansible_lsb": {},
                            "ansible_cmdline": {
                                "BOOT_IMAGE": "(hd0,gpt3)/boot/vmlinuz-4.18.0-348.el8.x86_64",
                                "root": "UUID=59aefd67-33cb-4166-8638-f74ee6c071bf",
                                "console": "ttyS0,115200n8",
                                "no_timer_check": true,
                                "net.ifnames": "0",
                                "crashkernel": "auto"
                            },
                            "ansible_proc_cmdline": {
                                "BOOT_IMAGE": "(hd0,gpt3)/boot/vmlinuz-4.18.0-348.el8.x86_64",
                                "root": "UUID=59aefd67-33cb-4166-8638-f74ee6c071bf",
                                "console": [
                                    "tty0",
                                    "ttyS0,115200n8"
                                ],
                                "no_timer_check": true,
                                "net.ifnames": "0",
                                "crashkernel": "auto"
                            },
                            "ansible_dns": {
                                "search": [
                                    "example.com"
                                ],
                                "nameservers": [
                                    "10.0.2.3",
                                    "150.239.16.12",
                                    "150.239.16.11",
                                    "8.8.8.8"
                                ]
                            },
                            "ansible_date_time": {
                                "year": "2022",
                                "month": "04",
                                "weekday": "Friday",
                                "weekday_number": "5",
                                "weeknumber": "14",
                                "day": "08",
                                "hour": "12",
                                "minute": "11",
                                "second": "35",
                                "epoch": "1649419895",
                                "epoch_int": "1649419895",
                                "date": "2022-04-08",
                                "time": "12:11:35",
                                "iso8601_micro": "2022-04-08T12:11:35.103803Z",
                                "iso8601": "2022-04-08T12:11:35Z",
                                "iso8601_basic": "20220408T121135103803",
                                "iso8601_basic_short": "20220408T121135",
                                "tz": "UTC",
                                "tz_dst": "UTC",
                                "tz_offset": "+0000"
                            },
                            "ansible_system_capabilities_enforced": "True",
                            "ansible_system_capabilities": [
                                "cap_chown",
                                "cap_dac_override",
                                "cap_fowner",
                                "cap_fsetid",
                                "cap_kill",
                                "cap_setgid",
                                "cap_setuid",
                                "cap_setpcap",
                                "cap_net_bind_service",
                                "cap_net_raw",
                                "cap_sys_chroot",
                                "cap_setfcap+eip"
                            ],
                            "ansible_apparmor": {
                                "status": "disabled"
                            },
                            "ansible_selinux_python_present": true,
                            "ansible_selinux": {
                                "status": "disabled"
                            },
                            "ansible_iscsi_iqn": "",
                            "ansible_is_chroot": false,
                            "ansible_python": {
                                "version": {
                                    "major": 3,
                                    "minor": 8,
                                    "micro": 8,
                                    "releaselevel": "final",
                                    "serial": 0
                                },
                                "version_info": [
                                    3,
                                    8,
                                    8,
                                    "final",
                                    0
                                ],
                                "executable": "/usr/bin/python3.8",
                                "has_sslcontext": true,
                                "type": "cpython"
                            },
                            "ansible_fips": false,
                            "ansible_processor": [
                                "0",
                                "GenuineIntel",
                                "Intel(R) Xeon(R) Gold 6248 CPU @ 2.50GHz",
                                "1",
                                "GenuineIntel",
                                "Intel(R) Xeon(R) Gold 6248 CPU @ 2.50GHz"
                            ],
                            "ansible_processor_count": 2,
                            "ansible_processor_cores": 1,
                            "ansible_processor_threads_per_core": 1,
                            "ansible_processor_vcpus": 2,
                            "ansible_processor_nproc": 2,
                            "ansible_memtotal_mb": 3736,
                            "ansible_memfree_mb": 729,
                            "ansible_swaptotal_mb": 0,
                            "ansible_swapfree_mb": 0,
                            "ansible_memory_mb": {
                                "real": {
                                    "total": 3736,
                                    "used": 3007,
                                    "free": 729
                                },
                                "nocache": {
                                    "free": 2238,
                                    "used": 1498
                                },
                                "swap": {
                                    "total": 0,
                                    "free": 0,
                                    "used": 0,
                                    "cached": 0
                                }
                            },
                            "ansible_bios_date": "04/01/2014",
                            "ansible_bios_vendor": "SeaBIOS",
                            "ansible_bios_version": "1.13.0-2.module+el8.2.1+7284+aa32a2c4",
                            "ansible_board_asset_tag": "NA",
                            "ansible_board_name": "NA",
                            "ansible_board_serial": "NA",
                            "ansible_board_vendor": "NA",
                            "ansible_board_version": "NA",
                            "ansible_chassis_asset_tag": "NA",
                            "ansible_chassis_serial": "NA",
                            "ansible_chassis_vendor": "Red Hat",
                            "ansible_chassis_version": "RHEL 7.6.0 PC (i440FX + PIIX, 1996)",
                            "ansible_form_factor": "Other",
                            "ansible_product_name": "OpenStack Compute",
                            "ansible_product_serial": "NA",
                            "ansible_product_uuid": "NA",
                            "ansible_product_version": "20.4.1-1.20200917173450.el8ost",
                            "ansible_system_vendor": "Red Hat",
                            "ansible_devices": {
                                "sr0": {
                                    "virtual": 1,
                                    "links": {
                                        "ids": [],
                                        "uuids": [],
                                        "labels": [],
                                        "masters": []
                                    },
                                    "vendor": "QEMU",
                                    "model": "QEMU DVD-ROM",
                                    "sas_address": null,
                                    "sas_device_handle": null,
                                    "removable": "1",
                                    "support_discard": "0",
                                    "partitions": {},
                                    "rotational": "1",
                                    "scheduler_mode": "mq-deadline",
                                    "sectors": "984",
                                    "sectorsize": "2048",
                                    "size": "492.00 KB",
                                    "host": "",
                                    "holders": []
                                },
                                "sda": {
                                    "virtual": 1,
                                    "links": {
                                        "ids": [],
                                        "uuids": [],
                                        "labels": [],
                                        "masters": []
                                    },
                                    "vendor": "QEMU",
                                    "model": "QEMU HARDDISK",
                                    "sas_address": null,
                                    "sas_device_handle": null,
                                    "removable": "0",
                                    "support_discard": "4096",
                                    "partitions": {
                                        "sda2": {
                                            "links": {
                                                "ids": [],
                                                "uuids": [],
                                                "labels": [],
                                                "masters": []
                                            },
                                            "start": "4096",
                                            "sectors": "204800",
                                            "sectorsize": 512,
                                            "size": "100.00 MB",
                                            "uuid": null,
                                            "holders": []
                                        },
                                        "sda3": {
                                            "links": {
                                                "ids": [],
                                                "uuids": [],
                                                "labels": [],
                                                "masters": []
                                            },
                                            "start": "208896",
                                            "sectors": "62705631",
                                            "sectorsize": 512,
                                            "size": "29.90 GB",
                                            "uuid": null,
                                            "holders": []
                                        },
                                        "sda1": {
                                            "links": {
                                                "ids": [],
                                                "uuids": [],
                                                "labels": [],
                                                "masters": []
                                            },
                                            "start": "2048",
                                            "sectors": "2048",
                                            "sectorsize": 512,
                                            "size": "1.00 MB",
                                            "uuid": null,
                                            "holders": []
                                        }
                                    },
                                    "rotational": "1",
                                    "scheduler_mode": "mq-deadline",
                                    "sectors": "62914560",
                                    "sectorsize": "512",
                                    "size": "30.00 GB",
                                    "host": "",
                                    "holders": []
                                }
                            },
                            "ansible_device_links": {
                                "ids": {},
                                "uuids": {},
                                "labels": {},
                                "masters": {}
                            },
                            "ansible_uptime_seconds": 26700,
                            "ansible_mounts": [
                                {
                                    "mount": "/runner",
                                    "device": "/dev/sda3",
                                    "fstype": "xfs",
                                    "options": "rw,seclabel,relatime,attr2,inode64,logbufs=8,logbsize=32k,noquota,bind",
                                    "size_total": 32094793728,
                                    "size_available": 5804883968,
                                    "block_size": 4096,
                                    "block_total": 7835643,
                                    "block_available": 1417208,
                                    "block_used": 6418435,
                                    "inode_total": 12727456,
                                    "inode_available": 11350331,
                                    "inode_used": 1377125,
                                    "uuid": "N/A"
                                },
                                {
                                    "mount": "/root/.ssh",
                                    "device": "/dev/sda3",
                                    "fstype": "xfs",
                                    "options": "rw,seclabel,relatime,attr2,inode64,logbufs=8,logbsize=32k,noquota,bind",
                                    "size_total": 32094793728,
                                    "size_available": 5804883968,
                                    "block_size": 4096,
                                    "block_total": 7835643,
                                    "block_available": 1417208,
                                    "block_used": 6418435,
                                    "inode_total": 12727456,
                                    "inode_available": 11350331,
                                    "inode_used": 1377125,
                                    "uuid": "N/A"
                                },
                                {
                                    "mount": "/runner/artifacts",
                                    "device": "/dev/sda3",
                                    "fstype": "xfs",
                                    "options": "rw,seclabel,relatime,attr2,inode64,logbufs=8,logbsize=32k,noquota,bind",
                                    "size_total": 32094793728,
                                    "size_available": 5804883968,
                                    "block_size": 4096,
                                    "block_total": 7835643,
                                    "block_available": 1417208,
                                    "block_used": 6418435,
                                    "inode_total": 12727456,
                                    "inode_available": 11350331,
                                    "inode_used": 1377125,
                                    "uuid": "N/A"
                                },
                                {
                                    "mount": "/home/student09/builder",
                                    "device": "/dev/sda3",
                                    "fstype": "xfs",
                                    "options": "rw,seclabel,relatime,attr2,inode64,logbufs=8,logbsize=32k,noquota,bind",
                                    "size_total": 32094793728,
                                    "size_available": 5804883968,
                                    "block_size": 4096,
                                    "block_total": 7835643,
                                    "block_available": 1417208,
                                    "block_used": 6418435,
                                    "inode_total": 12727456,
                                    "inode_available": 11350331,
                                    "inode_used": 1377125,
                                    "uuid": "N/A"
                                },
                                {
                                    "mount": "/home/runner/.ssh",
                                    "device": "/dev/sda3",
                                    "fstype": "xfs",
                                    "options": "rw,seclabel,relatime,attr2,inode64,logbufs=8,logbsize=32k,noquota,bind",
                                    "size_total": 32094793728,
                                    "size_available": 5804883968,
                                    "block_size": 4096,
                                    "block_total": 7835643,
                                    "block_available": 1417208,
                                    "block_used": 6418435,
                                    "inode_total": 12727456,
                                    "inode_available": 11350331,
                                    "inode_used": 1377125,
                                    "uuid": "N/A"
                                }
                            ],
                            "ansible_pkg_mgr": "dnf",
                            "ansible_service_mgr": "dumb-init",
                            "gather_subset": [
                                "all"
                            ],
                            "module_setup": true
                        },
                        "warnings": [],
                        "deprecations": [],
                        "_ansible_verbose_override": true,
                        "_ansible_no_log": false,
                        "changed": false
                    },
                    "start": "2022-04-08T12:11:33.735849",
                    "end": "2022-04-08T12:11:35.619860",
                    "duration": 1.884011,
                    "event_loop": null
                },
                {
                    "playbook": "/home/student09/builder/playbook.yml",
                    "playbook_uuid": "b823e69c-95a4-4e69-9019-aee20c46a3e6",
                    "play": "localhost",
                    "play_uuid": "164794ba-6196-6401-b80c-000000000005",
                    "play_pattern": "localhost",
                    "task": "Get stats of the my file",
                    "task_uuid": "164794ba-6196-6401-b80c-000000000007",
                    "task_action": "ansible.builtin.stat",
                    "task_args": "",
                    "task_path": "/home/student09/builder/playbook.yml:5",
                    "host": "localhost",
                    "uuid": "00695431-1f76-42ba-8b5f-5ccd8a6aba6e",
                    "__host": "localhost",
                    "__result": "OK",
                    "__changed": false,
                    "__duration": "0s",
                    "__number": 1,
                    "__task": "Get stats of the my file",
                    "__task_action": "ansible.builtin.stat",
                    "remote_addr": "127.0.0.1",
                    "res": {
                        "changed": false,
                        "stat": {
                            "exists": false
                        },
                        "invocation": {
                            "module_args": {
                                "path": "./myfile.txt",
                                "follow": false,
                                "get_md5": false,
                                "get_checksum": true,
                                "get_mime": true,
                                "get_attributes": true,
                                "checksum_algorithm": "sha1"
                            }
                        },
                        "_ansible_no_log": false
                    },
                    "start": "2022-04-08T12:11:35.642665",
                    "end": "2022-04-08T12:11:36.539865",
                    "duration": 0.8972,
                    "event_loop": null
                },
                {
                    "playbook": "/home/student09/builder/playbook.yml",
                    "playbook_uuid": "b823e69c-95a4-4e69-9019-aee20c46a3e6",
                    "play": "localhost",
                    "play_uuid": "164794ba-6196-6401-b80c-000000000005",
                    "play_pattern": "localhost",
                    "task": "Print a debug message",
                    "task_uuid": "164794ba-6196-6401-b80c-000000000008",
                    "task_action": "ansible.builtin.debug",
                    "task_args": "",
                    "task_path": "/home/student09/builder/playbook.yml:10",
                    "host": "localhost",
                    "uuid": "6396c7a2-b831-4701-b790-c6ae43917fb3",
                    "__host": "localhost",
                    "__result": "OK",
                    "__changed": false,
                    "__duration": "0s",
                    "__number": 2,
                    "__task": "Print a debug message",
                    "__task_action": "ansible.builtin.debug",
                    "remote_addr": "127.0.0.1",
                    "res": {
                        "msg": "My file exists",
                        "_ansible_verbose_always": true,
                        "_ansible_no_log": false,
                        "changed": false
                    },
                    "start": "2022-04-08T12:11:36.554579",
                    "end": "2022-04-08T12:11:36.669065",
                    "duration": 0.114486,
                    "event_loop": null
                }
            ]
        }
    ],
    "stdout": [
        "\u001b[1;35m[WARNING]: Unable to parse /home/student09/builder/inventory as an inventory\u001b[0m",
        "\u001b[1;35msource\u001b[0m",
        "\u001b[1;35m[WARNING]: No inventory was parsed, only implicit localhost is available\u001b[0m",
        "\u001b[1;35m[WARNING]: provided hosts list is empty, only localhost is available. Note that\u001b[0m",
        "\u001b[1;35mthe implicit localhost does not match 'all'\u001b[0m",
        "",
        "PLAY [localhost] ***************************************************************",
        "",
        "TASK [Gathering Facts] *********************************************************",
        "\u001b[0;32mok: [localhost]\u001b[0m",
        "",
        "TASK [Get stats of the my file] ************************************************",
        "\u001b[0;32mok: [localhost]\u001b[0m",
        "",
        "TASK [Print a debug message] ***************************************************",
        "\u001b[0;32mok: [localhost] => {\u001b[0m",
        "\u001b[0;32m    \"msg\": \"My file exists\"\u001b[0m",
        "\u001b[0;32m}\u001b[0m",
        "",
        "PLAY RECAP *********************************************************************",
        "\u001b[0;32mlocalhost\u001b[0m                  : \u001b[0;32mok=3   \u001b[0m changed=0    unreachable=0    failed=0    skipped=0    rescued=0    ignored=0   "
    ],
    "status": "successful",
    "status_color": 13
}